<?xml version="1.0" encoding="utf-8"?>
<!-- Generator: Adobe Illustrator 19.0.0, SVG Export Plug-In . SVG Version: 6.00 Build 0)  -->
<svg version="1.1" id="Calque_1" xmlns="http://www.w3.org/2000/svg" xmlns:xlink="http://www.w3.org/1999/xlink" x="0px" y="0px"
	 viewBox="0 0 200 200" style="enable-background:new 0 0 200 200;" xml:space="preserve">
<style type="text/css">
	.st0{fill:#D4E1EA;}
	.st1{fill:#4C697F;}
	.st2{fill:#4C687F;}
	.st3{fill:#3E5063;}
	.st4{fill:#D9E6EE;}
	.st5{fill:#FDFEFE;}
	.st6{fill:#C9D7E1;}
	.st7{fill:#E06860;}
</style>
<g>
	<path class="st0" d="M100.2,1.2c54.4,0.2,99.1,44.1,98.5,100c-0.5,53.5-43.9,98.4-100.4,97.6c-53-0.7-98.2-43.9-97.1-100.9
		C2.2,45,44.9,1.3,100.2,1.2z M153.6,124.1c-0.9-0.3-1.6-0.8-1.8-1.8c2-1.1,5.9,1.9,5.9-3.4c-0.2-21.8-0.1-43.7,0-65.5
		c0-3.6-1.4-5.5-5.2-5.5c-34.9,0-69.8,0-104.8,0c-3.5,0-5.2,1.6-5.2,5.1c0,22,0,44,0,65.9c0,2.4,0.6,3.4,3.1,3.2
		c2.3-0.1,4.8-0.3,6.3,2c-3.5,0.9-7.8-1.5-10.5,2c-3,3.7-5.5,7.8-8.3,11.8c-2.1,8.8,1.8,14.1,10.6,14.1c37.6,0,75.1,0,112.7,0
		c8.8,0,12.7-5.2,10.6-14.1c-2.2-3.2-4.5-6.2-6.4-9.5C158.9,125.7,156.8,124.1,153.6,124.1z"/>
	<path class="st1" d="M51.9,124.2c-1.6-2.3-4.1-2.1-6.4-2c-2.5,0.1-3.2-0.9-3.1-3.2c0.1-22,0-44,0-65.9c0-3.5,1.6-5.1,5.2-5.1
		c34.9,0,69.8,0,104.8,0c3.8,0,5.2,1.9,5.2,5.5c0,21.8-0.1,43.7,0,65.5c0,5.3-3.9,2.3-5.9,3.4c-6.5-0.1-13.1-0.2-19.6-0.1
		c-1.2,0-3-0.5-3.1,1.8c-1.4,0.1-2.8,0.2-4.2,0.2C100.5,124.2,76.2,124.2,51.9,124.2z M100.5,55.5c-15.5,0-30.9,0.1-46.4-0.1
		c-3.2,0-4.3,0.6-4.2,4.1c0.2,17,0.1,34,0,51c0,2.9,0.5,4,3.8,4c30.9-0.1,61.8-0.1,92.7,0c3.3,0,3.7-1.2,3.7-4.1
		c-0.1-17-0.2-34,0-51c0-3.4-1.1-4.1-4.2-4C130.8,55.6,115.6,55.5,100.5,55.5z"/>
	<path class="st2" d="M166.9,138c2.1,8.8-1.8,14.1-10.6,14.1c-37.6,0-75.1,0-112.7,0c-8.8,0-12.7-5.2-10.6-14.1
		c16.7,0.1,33.3,0.2,50,0.3c-0.1,2.7,1.6,3.4,3.9,3.4c8.7,0,17.4,0,26,0c2.3,0,4-0.7,3.9-3.4C133.6,138.1,150.3,138.1,166.9,138z
		 M161.3,145.3c0.1-1.2-0.4-2.3-1.9-2.5c-1.4-0.2-2.4,0.6-2.6,2c-0.2,1.2,0.5,2.1,1.7,2.4C159.9,147.5,160.9,146.9,161.3,145.3z"/>
	<path class="st3" d="M166.9,138c-16.7,0.1-33.3,0.2-50,0.3c-11.3,0-22.6,0-33.9,0c-16.7-0.1-33.3-0.2-50-0.3
		c2.7-3.9,5.3-8,8.3-11.8c2.8-3.5,7-1.1,10.6-2c24.3,0,48.6,0,72.9,0c1.4,0,2.8-0.1,4.2-0.2c8.2,1,16.4,0.6,24.6,0.2
		c3.3-0.1,5.3,1.6,6.9,4.3C162.5,131.7,164.8,134.8,166.9,138z"/>
	<path class="st4" d="M153.6,124.1c-8.2,0.4-16.4,0.8-24.6-0.2c0.1-2.2,1.9-1.7,3.1-1.8c6.5,0,13.1,0.1,19.6,0.1
		C152,123.3,152.6,123.8,153.6,124.1z"/>
	<path class="st5" d="M100.5,55.5c15.1,0,30.3,0.1,45.4-0.1c3.1,0,4.3,0.6,4.2,4c-0.2,17-0.1,34,0,51c0,2.9-0.4,4.1-3.7,4.1
		c-30.9-0.1-61.8-0.1-92.7,0c-3.3,0-3.8-1.2-3.8-4c0.1-17,0.2-34,0-51c0-3.4,1.1-4.1,4.2-4.1C69.6,55.6,85,55.5,100.5,55.5z"/>
	<path class="st6" d="M83.1,138.2c11.3,0,22.6,0,33.9,0c0.1,2.7-1.6,3.4-3.9,3.4c-8.7,0-17.4,0-26,0C84.7,141.7,83,141,83.1,138.2z"
		/>
	<path class="st7" d="M161.3,145.3c-0.4,1.6-1.4,2.2-2.8,1.8c-1.1-0.3-1.9-1.1-1.7-2.4c0.2-1.4,1.2-2.2,2.6-2
		C160.9,143,161.4,144,161.3,145.3z"/>
</g>
</svg>
