<?xml version="1.0" encoding="utf-8"?>
<!-- Generator: Adobe Illustrator 19.0.0, SVG Export Plug-In . SVG Version: 6.00 Build 0)  -->
<svg version="1.1" id="Calque_1" xmlns="http://www.w3.org/2000/svg" xmlns:xlink="http://www.w3.org/1999/xlink" x="0px" y="0px"
	 viewBox="0 0 200 200" style="enable-background:new 0 0 200 200;" xml:space="preserve">
<style type="text/css">
	.st0{fill:#4B5F83;}
	.st1{fill:#FCFCFC;}
	.st2{fill:#FDFDFD;}
	.st3{fill:#E6E6E6;}
	.st4{fill:#233241;}
	.st5{fill:#22313F;}
	.st6{fill:#001A2D;}
	.st7{fill:#3C537A;}
	.st8{fill:#E8E8E7;}
	.st9{fill:#E5E5E5;}
	.st10{fill:#CF0812;}
	.st11{fill:#2AA75F;}
	.st12{fill:#2DA860;}
</style>
<circle class="st0" cx="100" cy="100" r="97.6"/>
<g>
	<path class="st0" d="M89.9,9.4c6.4,0,12.7,0,19.1,0c0.2,0,0.9-0.1,1.1,0c0.2,0.1,0.2,0.5,0.5,0.6c0.4,0.2,0.9,0.2,1.3,0.2
		c1.1,0.1,2.2,0.3,3.2,0.5c2.2,0.4,4.5,0.9,6.7,1.4c8.6,2.1,16.9,5.5,24.6,10.1c7.5,4.5,14.3,10,20.3,16.4
		c6,6.5,10.9,13.8,14.8,21.7c2,4,3.6,8.2,5,12.5c0.7,2.2,1.3,4.4,1.8,6.6c0.6,2.6,0.7,5.3,1.4,7.9c0.2,0.7,0.4,1.3,0.7,1.9
		c0.1,0.3,0.3,0.6,0.4,0.9c0.1,0.4,0,1,0,1.4c0,1.6,0,3.1,0,4.7c0,3.2,0,6.4,0,9.6c0,0.8,0,1.6,0,2.3c0,0.8,0.2,1.8,0,2.5
		c-0.1,0.5-0.7,0.8-0.9,1.4c-0.2,0.5-0.2,1-0.3,1.5c-0.2,2.2-0.7,4.4-1.2,6.6c-2.1,8.7-5.3,17.1-9.7,24.9c-4.3,7.6-9.7,14.5-16,20.5
		c-6.3,6.1-13.6,11.2-21.4,15.1c-8.2,4.2-17.1,7.4-26.3,8.6c-1.3,0.2-2.7,0.4-3.9,0.9c-0.3,0.1-0.7,0.4-1,0.5c-0.3,0.1-0.8,0-1.1,0
		c-0.8,0-1.7,0-2.5,0c-3.2,0-6.4,0-9.6,0c-1.6,0-3.1,0-4.7,0c-0.8,0-1.6,0-2.3,0c-0.4,0-0.6,0-0.9-0.2c-0.3-0.2-0.4-0.4-0.7-0.6
		c-0.9-0.4-1.9-0.3-2.9-0.4c-1.1-0.1-2.3-0.4-3.4-0.7c-8.6-1.9-17-4.9-24.8-9c-7.4-3.9-14.3-8.9-20.4-14.8
		c-6-5.9-11.2-12.6-15.3-19.9c-4.3-7.7-7.5-15.9-9.6-24.4c-0.5-2.1-1.2-4.4-1.3-6.6c0-1,0-2-0.7-2.8c-0.4-0.4-0.4-0.3-0.4-0.9
		c0-0.4,0-0.7,0-1.1c0-0.8,0-1.7,0-2.5c0-3.2,0-6.4,0-9.6c0-1.6,0-3.1,0-4.7c0-0.8,0-1.6,0-2.4c0-0.5,0-0.7,0.2-1.1
		c0.2-0.2,0.4-0.4,0.5-0.7c0.5-0.9,0.4-2.1,0.5-3.1c0.1-1.1,0.4-2.2,0.6-3.3c0.5-2.2,1-4.5,1.7-6.7c1.2-4.3,2.8-8.5,4.6-12.6
		c3.6-8,8.3-15.4,14-22c5.7-6.6,12.3-12.3,19.6-16.9c7.5-4.8,15.7-8.4,24.3-10.9c2.2-0.6,4.4-1.2,6.6-1.6
		C84.7,10.7,87.5,10.7,89.9,9.4C96.6,9.4,87.2,10.9,89.9,9.4z M71.3,129.4c0.1-0.3,0.1-0.5,0-0.8c18.5,0,37.1,0,55.6,0
		c0.3,0.3,0.5,0.5,0.8,0.8c-0.1,2.3,0.8,3.4,3.3,3.3c2.7-0.2,5.3-0.1,8,0c2.4,0.1,3.5-0.8,3.1-3.3c0.1-0.2,0.1-0.5,0-0.8
		c6.1-0.9,7.2-2.2,7.2-8.2c0-4.8,0.1-9.6,0-14.4c0-3.4-1.5-5.6-5.2-5.8c-0.8,0-1.6,0.2-2.1-0.7c0.1-1.3,0.2-2.6,0.4-3.9
		c5.3-0.4,6.9-2,6.9-7.2c0-5,0.1-9.9,0-14.9c-0.1-4.1-2.1-6.2-6.2-6.2c-28.9,0-57.7,0-86.6,0c-4.1,0-6.2,2.1-6.2,6.2
		c-0.1,5,0,9.9,0,14.9c0,5.2,1.6,6.8,6.9,7.2c0,1.3,0.1,2.5,0.1,3.8c-7,2.9-7,2.9-7,10.8c0,3.3,0,6.7,0,10c0,6.1,1.2,7.4,7.2,8.3
		c-0.1,0.3-0.1,0.5,0,0.8c-0.3,5.2,3.8,3.4,5.8,3C66.1,131.9,70.9,135.7,71.3,129.4z"/>
	<path class="st1" d="M142.2,99.6c0.5,0.9,1.3,0.6,2.1,0.7c3.6,0.2,5.1,2.4,5.2,5.8c0.1,4.8,0,9.6,0,14.4c0,6-1.2,7.3-7.2,8.2
		c-4.6,0-9.1,0-13.7,0c-0.3,0-0.5,0-0.8,0c-0.3,0-0.6,0-0.8,0c-18.5,0-37.1,0-55.6,0c-4.6,0-9.1,0-13.7,0c-6.1-0.9-7.2-2.2-7.2-8.3
		c0-3.3,0-6.7,0-10c0-7.9,0-7.9,7-10.8C85.7,99.6,113.9,99.6,142.2,99.6z M70.5,114.1C70.5,114.1,70.5,114.1,70.5,114.1
		c0-1.5,0-2.9,0-4.4c0-1.4-0.2-2.7-2-2.8c-1.8,0-2.7,0.9-2.7,2.7c0,3.2,0,6.4,0,9.6c0,1.5,0.9,2.1,2.3,2.1c1.4,0,2.3-0.5,2.4-2
		C70.5,117.6,70.5,115.9,70.5,114.1z M57.7,113.8c0,1.9,0,3.8,0,5.6c0,1.3,0.8,1.9,2.1,1.9c1.1,0,1.8-0.7,1.8-1.8
		c0-3.6,0-7.2,0-10.8c0-1.1-0.8-1.7-1.9-1.7c-1.3,0-2,0.7-2,2C57.7,110.6,57.7,112.2,57.7,113.8z M78.5,114.4
		C78.5,114.4,78.5,114.4,78.5,114.4c0-1.9,0.1-3.8,0-5.6c0-1.1-0.6-1.7-1.7-1.8c-1.3-0.1-2.1,0.5-2.1,1.8c0,3.6,0,7.2,0,10.8
		c0,1.1,0.8,1.6,1.9,1.6c1.1,0,1.9-0.5,1.9-1.6C78.6,117.9,78.5,116.2,78.5,114.4z M125.2,118.3c2.5-0.1,4.1-1.4,4.2-3.9
		c0.1-2.8-1.5-4.3-4.1-4.3c-2.4,0-4,1.5-4,4C121.2,116.7,122.7,118,125.2,118.3z M138.2,118.3c2.5-0.2,3.9-1.6,3.9-4.1
		c0-2.7-1.7-4.3-4.3-4.1c-2.5,0.1-3.9,1.7-3.8,4.3C134.1,116.9,135.6,118.2,138.2,118.3z"/>
	<path class="st2" d="M57.4,95.7c-5.3-0.4-6.9-2-6.9-7.2c0-5-0.1-9.9,0-14.9c0.1-4.1,2.1-6.2,6.2-6.2c28.9,0,57.7,0,86.6,0
		c4.1,0,6.2,2.1,6.2,6.2c0.1,5,0,9.9,0,14.9c0,5.2-1.6,6.8-6.9,7.2C114.2,95.7,85.8,95.7,57.4,95.7z M70.5,81.7
		C70.5,81.7,70.5,81.7,70.5,81.7c0-1.7,0-3.5-0.1-5.2c-0.1-1.3-0.9-1.8-2.1-1.8c-1.4,0-2.5,0.3-2.5,1.9c-0.1,3.3-0.1,6.7,0,10
		c0.1,1.7,1.5,2.1,2.9,2.1c1.4,0.1,1.7-1.1,1.8-2.2C70.5,84.9,70.5,83.3,70.5,81.7z M138,77.6c-2,0.2-3.9,1-4,3.7
		c-0.1,2.8,1.4,4.4,4,4.5c2.4,0,4-1.5,4.1-4C142.3,79.2,140.8,77.8,138,77.6z M125.3,77.5c-2.5,0.2-4.1,1.5-4.1,4.1
		c0,2.6,1.6,4.1,3.9,4.2c2.5,0,4.3-1.5,4.2-4.3C129.3,78.9,127.7,77.7,125.3,77.5z M78.5,81.7C78.6,81.7,78.6,81.7,78.5,81.7
		c0.1-1.5,0.1-3,0-4.4c0-1.3-0.3-2.4-1.9-2.5c-1.6,0-2,1-2,2.4c0,3.1,0,6.2,0.1,9.3c0,1.3,0.8,1.9,2.1,1.9c1.1,0,1.7-0.7,1.8-1.8
		C78.6,84.9,78.5,83.3,78.5,81.7z M61.6,81.7c0-1.7,0-3.4,0-5.2c0-1.3-0.8-1.9-2.1-1.8c-1.1,0.1-1.7,0.7-1.8,1.8
		c0,3.3-0.1,6.6,0,9.9c0,1.3,0.8,1.9,2.1,1.8c1.1-0.1,1.7-0.7,1.8-1.8C61.7,84.9,61.6,83.3,61.6,81.7z"/>
	<path class="st3" d="M57.4,95.7c28.4,0,56.8,0,85.2,0c-0.1,1.3-0.2,2.6-0.4,3.9c-28.2,0-56.5-0.1-84.7-0.1
		C57.4,98.3,57.4,97,57.4,95.7z"/>
	<path class="st4" d="M127.8,128.7c0.3,0,0.5,0,0.8,0c4.5,1.6,9.1,0.4,13.6,0.7c0.4,2.5-0.7,3.4-3.1,3.3c-2.7-0.1-5.4-0.2-8,0
		c-2.5,0.2-3.4-0.9-3.3-3.3C127.8,129.2,127.8,128.9,127.8,128.7z"/>
	<path class="st5" d="M71.3,129.4c-0.4,6.3-5.2,2.5-7.9,3c-2,0.4-6.1,2.1-5.8-3C62.2,129.4,66.8,129.4,71.3,129.4z"/>
	<path class="st6" d="M71.3,129.4c-4.6,0-9.1,0-13.7,0c-0.1-0.3-0.1-0.5,0-0.8c4.6,0,9.1,0,13.7,0C71.4,128.9,71.4,129.2,71.3,129.4
		z"/>
	<path class="st6" d="M142.2,129.4c-4.5-0.4-9.2,0.9-13.6-0.7c4.6,0,9.1,0,13.7,0C142.3,128.9,142.3,129.2,142.2,129.4z"/>
	<path class="st7" d="M127.8,128.7c0,0.3,0,0.5,0,0.8c-0.3-0.3-0.5-0.5-0.8-0.8C127.2,128.7,127.5,128.7,127.8,128.7z"/>
	<path class="st8" d="M70.5,114.1c0,1.7,0,3.5,0,5.2c0,1.5-1,2-2.4,2c-1.4,0-2.3-0.6-2.3-2.1c0-3.2,0-6.4,0-9.6
		c0-1.7,0.9-2.7,2.7-2.7c1.9,0,2,1.4,2,2.8C70.5,111.2,70.5,112.7,70.5,114.1C70.5,114.1,70.5,114.1,70.5,114.1z"/>
	<path class="st9" d="M57.7,113.8c0-1.6,0-3.2,0-4.8c0-1.3,0.7-2,2-2c1.1,0,1.8,0.6,1.9,1.7c0.1,3.6,0.1,7.2,0,10.8
		c0,1.1-0.6,1.7-1.8,1.8c-1.3,0.1-2.1-0.6-2.1-1.9C57.7,117.5,57.7,115.7,57.7,113.8z"/>
	<path class="st9" d="M78.5,114.4c0,1.7,0.1,3.5,0,5.2c0,1.1-0.8,1.6-1.9,1.6c-1.1,0-1.9-0.5-1.9-1.6c-0.1-3.6-0.1-7.2,0-10.8
		c0-1.3,0.8-1.9,2.1-1.8c1.1,0.1,1.7,0.7,1.7,1.8C78.6,110.7,78.5,112.6,78.5,114.4C78.5,114.4,78.5,114.4,78.5,114.4z"/>
	<path class="st10" d="M125.2,118.3c-2.5-0.3-3.9-1.6-3.9-4.1c0-2.6,1.6-4,4-4c2.7,0,4.3,1.6,4.1,4.3
		C129.3,116.9,127.7,118.2,125.2,118.3z"/>
	<path class="st11" d="M138.2,118.3c-2.6-0.1-4.1-1.3-4.2-3.9c-0.1-2.6,1.3-4.1,3.8-4.3c2.7-0.1,4.3,1.4,4.3,4.1
		C142.2,116.7,140.7,118.1,138.2,118.3z"/>
	<path class="st8" d="M70.5,81.7c0,1.6,0,3.2,0,4.8c0,1.1-0.4,2.3-1.8,2.2c-1.3-0.1-2.8-0.4-2.9-2.1c-0.1-3.3-0.1-6.7,0-10
		c0-1.6,1.1-1.9,2.5-1.9c1.2,0,2.1,0.5,2.1,1.8C70.5,78.3,70.5,80,70.5,81.7C70.5,81.7,70.5,81.7,70.5,81.7z"/>
	<path class="st12" d="M138,77.6c2.8,0.2,4.3,1.6,4.2,4.2c-0.1,2.5-1.7,4.1-4.1,4c-2.6-0.1-4.1-1.7-4-4.5
		C134.1,78.6,136,77.8,138,77.6z"/>
	<path class="st10" d="M125.3,77.5c2.4,0.2,4,1.3,4.1,3.9c0.1,2.8-1.7,4.3-4.2,4.3c-2.3,0-4-1.6-3.9-4.2
		C121.3,79,122.8,77.7,125.3,77.5z"/>
	<path class="st9" d="M78.5,81.7c0,1.6,0,3.2,0,4.8c0,1.1-0.6,1.7-1.8,1.8c-1.3,0.1-2.1-0.6-2.1-1.9c-0.1-3.1,0-6.2-0.1-9.3
		c0-1.4,0.4-2.4,2-2.4c1.6,0,1.9,1.2,1.9,2.5C78.6,78.7,78.6,80.2,78.5,81.7C78.6,81.7,78.6,81.7,78.5,81.7z"/>
	<path class="st9" d="M61.6,81.7c0,1.6,0,3.2,0,4.8c0,1.1-0.6,1.7-1.8,1.8c-1.3,0.1-2.1-0.5-2.1-1.8c-0.1-3.3,0-6.6,0-9.9
		c0-1.1,0.6-1.7,1.8-1.8c1.3-0.1,2.1,0.5,2.1,1.8C61.7,78.3,61.6,80,61.6,81.7z"/>
</g>
</svg>
