<?xml version="1.0" encoding="utf-8"?>
<svg xmlns="http://www.w3.org/2000/svg" xmlns:xlink="http://www.w3.org/1999/xlink" style="margin: auto; background: rgb(255, 255, 255); display: block; shape-rendering: auto;" width="254px" height="254px" viewBox="0 0 100 100" preserveAspectRatio="xMidYMid">
<circle cx="50" cy="50" r="5.53831" fill="none" stroke="#f5ac77" stroke-width="3">
  <animate attributeName="r" repeatCount="indefinite" dur="1.6949152542372878s" values="0;20" keyTimes="0;1" keySplines="0 0.2 0.8 1" calcMode="spline" begin="-0.8474576271186439s"></animate>
  <animate attributeName="opacity" repeatCount="indefinite" dur="1.6949152542372878s" values="1;0" keyTimes="0;1" keySplines="0.2 0 0.8 1" calcMode="spline" begin="-0.8474576271186439s"></animate>
</circle>
<circle cx="50" cy="50" r="15.7785" fill="none" stroke="#f5ac77" stroke-width="3">
  <animate attributeName="r" repeatCount="indefinite" dur="1.6949152542372878s" values="0;20" keyTimes="0;1" keySplines="0 0.2 0.8 1" calcMode="spline"></animate>
  <animate attributeName="opacity" repeatCount="indefinite" dur="1.6949152542372878s" values="1;0" keyTimes="0;1" keySplines="0.2 0 0.8 1" calcMode="spline"></animate>
</circle>
<!-- [ldio] generated by https://loading.io/ --></svg>